…
``` r
vars = c("control", "treat", "instr", "e")
Cor <- matrix(cbind(1, 0, 0, 0,
                    0, 1, 0.85, -0.5,
                    0, 0.85, 1, 0,
                    0, -0.5, 0, 1),nrow=4)
rownames(Cor) <- colnames(Cor) <- vars

Fake <- as_tibble(cor2data(Cor, 1000, 8675309)) # Jenny I got your number...
Fake$y <- with(Fake, 5 + .5*control + .5*treat + e)

Fake
```

    ## # A tibble: 1,000 x 5
    ##    control   treat   instr       e     y
    ##      <dbl>   <dbl>   <dbl>   <dbl> <dbl>
    ##  1 -0.997   0.722   0.288  -0.220   4.64
    ##  2  1.07    0.987   0.854  -0.260   5.77
    ##  3  0.572   0.904  -0.0482 -1.38    4.36
    ##  4  0.150  -0.660  -1.08    0.148   4.89
    ##  5 -0.442  -0.901  -0.845   0.0682  4.40
    ##  6  1.99    0.0440 -0.176  -0.497   5.52
    ##  7 -0.415   0.683   0.944   0.383   5.52
    ##  8 -0.186   0.383   0.524   0.475   5.57
    ##  9  1.57    0.589   0.176  -0.863   5.22
    ## 10  0.0639 -0.313  -0.397  -0.0922  4.78
    ## # … with 990 more rows
…
nobs <- 1e3

corvectors(cbind(runif(nobs, 0, 100),
                 rbnorm(nobs, 20.73, 14.14, 0, 100),
                 rbnorm(nobs, 87.52, 12.93, 0, 100)), cormatrix) %>% 
  as.data.frame() %>% as_tibble() %>%
  rename(meals = V1, colgrad = V2, fullqual = V3)
```

    ##            [,1]       [,2]       [,3]
    ## [1,]  1.0000000 -0.6820601 -0.4844784
    ## [2,] -0.6820601  1.0000000  0.3286409
    ## [3,] -0.4844784  0.3286409  1.0000000

    ## # A tibble: 1,000 x 3
    ##     meals colgrad fullqual
    ##     <dbl>   <dbl>    <dbl>
    ##  1 17.9      5.15     98.4
    ##  2 10.5     29.3      96.9
    ##  3 17.0     47.4      99.4
    ##  4 75.5      7.27     79.4
    ##  5 71.6     10.4      82.6
    ##  6 72.0      3.07     91.6
    ##  7 65.3      9.76     81.7
    ##  8 95.2      5.30     93.9
    ##  9  0.100   57.6      98.3
    ## 10  9.58     8.87     98.4
    ## # … with 990 more rows
…
Do note that it assumes a pipe-based workflow. It’s there for when
you’re having to sit down in an R session and recode data without the
assistance of a dual-monitor setup or physical codebook.

``` r
ess9_labelled
```

    ## # A tibble: 109 x 4
    ##    essround edition cntry                      netusoft
    ##       <dbl> <chr>   <chr+lbl>                 <dbl+lbl>
    ##  1        9 1.2     AT [Austria] 5 [Every day]         
    ##  2        9 1.2     AT [Austria] 1 [Never]             
    ##  3        9 1.2     AT [Austria] 4 [Most days]         
    ##  4        9 1.2     AT [Austria] 2 [Only occasionally] 
    ##  5        9 1.2     AT [Austria] 3 [A few times a week]
    ##  6        9 1.2     BE [Belgium] 5 [Every day]         
    ##  7        9 1.2     BE [Belgium] 2 [Only occasionally] 
    ##  8        9 1.2     BE [Belgium] 1 [Never]             
    ##  9        9 1.2     BE [Belgium] 4 [Most days]         
    ## 10        9 1.2     BE [Belgium] 3 [A few times a week]
    ## # … with 99 more rows
…
I explain this in [this blog post from
2017](http://svmiller.com/blog/2017/06/quickly-create-peace-years-for-btscs-models-with-stevemisc/).
It’s incidentally the first thing I added to `{stevemisc}`. I offer,
with it, the `usa_mids` data frame that has all militarized interstate
disputes for the United States in non-directed dyad-year form from the
Gibler-Miller-Little (“GML”) data.

``` r
# ?usa_mids
sbtscs(usa_mids, midongoing, year, dyad)
```

    ## # A tibble: 14,586 x 7
    ##       dyad ccode1 ccode2  year midongoing midonset spell
    ##      <dbl>  <dbl>  <dbl> <dbl>      <dbl>    <dbl> <dbl>
    ##  1 1002020      2     20  1920          0        0     0
    ##  2 1002020      2     20  1921          0        0     1
    ##  3 1002020      2     20  1922          0        0     2
    ##  4 1002020      2     20  1923          0        0     3
    ##  5 1002020      2     20  1924          0        0     4
    ##  6 1002020      2     20  1925          0        0     5
    ##  7 1002020      2     20  1926          0        0     6
    ##  8 1002020      2     20  1927          0        0     7
    ##  9 1002020      2     20  1928          0        0     8
    ## 10 1002020      2     20  1929          0        0     9
    ## # … with 14,576 more rows
