Steve's Miscellaneous Functions • stevemisc
…
cor2data() is great for instructional purposes for simulating data from a standard normal distribution in which the ensuing data are generated to approximate some pre-specified correlations. This is useful for teaching how statistical models are supposed to operate under ideal circumstances. For example, here’s how I used this function to teach about instrumental variable models. Notice the correlations I devise and how they satisfy they assumptions of exclusion, exogeneity, and relevance.

vars = c("control", "treat", "instr", "e")
Cor <- matrix(cbind(1, 0, 0, 0,
                    0, 1, 0.85, -0.5,
                    0, 0.85, 1, 0,
                    0, -0.5, 0, 1),nrow=4)
rownames(Cor) <- colnames(Cor) <- vars

Fake <- as_tibble(cor2data(Cor, 1000, 8675309)) # Jenny I got your number...
Fake$y <- with(Fake, 5 + .5*control + .5*treat + e)

Fake
#> # A tibble: 1,000 x 5
#>    control   treat   instr       e     y
#>      <dbl>   <dbl>   <dbl>   <dbl> <dbl>
#>  1 -0.997   0.722   0.288  -0.220   4.64
#>  2  1.07    0.987   0.854  -0.260   5.77
#>  3  0.572   0.904  -0.0482 -1.38    4.36
#>  4  0.150  -0.660  -1.08    0.148   4.89
#>  5 -0.442  -0.901  -0.845   0.0682  4.40
#>  6  1.99    0.0440 -0.176  -0.497   5.52
#>  7 -0.415   0.683   0.944   0.383   5.52
#>  8 -0.186   0.383   0.524   0.475   5.57
#>  9  1.57    0.589   0.176  -0.863   5.22
#> 10  0.0639 -0.313  -0.397  -0.0922  4.78
#> # … with 990 more rows
…
corvectors() is a port of correlate() from the {correlate} package. This package is no longer on CRAN, but it’s wonderful for creating multivariate data with set correlations in which variables can be on any number of raw scales. I used this function to create fake data to mimic the API data in survey, which I make available as fakeAPI in the stevedata package. Here is a smaller version of that.

data(api, package="survey")
cormatrix <- cor(apipop %>%
                   select(meals, col.grad, full) %>% na.omit)

nobs <- 1e3

corvectors(cbind(runif(nobs, 0, 100),
                 rbnorm(nobs, 20.73, 14.14, 0, 100),
                 rbnorm(nobs, 87.52, 12.93, 0, 100)), cormatrix) %>% 
  as.data.frame() %>% as_tibble() %>%
  rename(meals = V1, colgrad = V2, fullqual = V3)
#> # A tibble: 1,000 x 3
#>     meals colgrad fullqual
#>     <dbl>   <dbl>    <dbl>
#>  1 17.9     13.8      98.4
#>  2 10.5     14.0      99.9
#>  3 17.0     21.8      89.6
#>  4 75.5      1.38     79.4
#>  5 71.6      5.33     82.6
#>  6 72.0     14.3      61.6
#>  7 65.3     16.5      74.4
#>  8 95.2      4.02     89.5
#>  9  0.100   61.3      98.3
#> 10  9.58    36.1      99.8
#> # … with 990 more rows
…
library(modelr)
# Note: the DV must be in the "new data". 
# It doesn't matter what value it is.
# It just needs to be there as a column.
ESS9GB %>%
  data_grid(.model=M1, immigsent = 0, 
            lrscale = c(min(lrscale, na.rm=T),
                        max(lrscale, na.rm=T))) -> newdat

Sims <- get_sims(M1, newdat, 1000, 8675309)

Sims
#> # A tibble: 2,000 x 2
#>        y   sim
#>    <dbl> <dbl>
#>  1  19.4     1
#>  2  13.6     1
#>  3  19.0     2
#>  4  13.5     2
#>  5  19.6     3
#>  6  12.8     3
#>  7  19.5     4
#>  8  13.4     4
#>  9  19.8     5
#> 10  13.8     5
#> # … with 1,990 more rows

get_var_info(): Get Labelled Data from Your Variables

get_var_info() allows for what I like to term “peeking” at your labelled data. If you do not have a codebook handy, but you know the data are labelled, get_var_info() (and its shortcut: gvi()) will extract the pertinent information for you. {stevemisc} comes with a toy data set—ess9_labelled—in which there are two labelled variables for the country and internet consumption from the ninth round of the European Social Survey. You can extract that information with this package.

Do note that it assumes a pipe-based workflow. It’s there for when you’re having to sit down in an R session and recode data without the assistance of a dual-monitor setup or physical codebook.

ess9_labelled
#> # A tibble: 109 x 4
#>    essround edition cntry                      netusoft
#>       <dbl> <chr>   <chr+lbl>                 <dbl+lbl>
#>  1        9 1.2     AT [Austria] 5 [Every day]         
#>  2        9 1.2     AT [Austria] 1 [Never]             
#>  3        9 1.2     AT [Austria] 4 [Most days]         
#>  4        9 1.2     AT [Austria] 2 [Only occasionally] 
#>  5        9 1.2     AT [Austria] 3 [A few times a week]
#>  6        9 1.2     BE [Belgium] 5 [Every day]         
#>  7        9 1.2     BE [Belgium] 2 [Only occasionally] 
#>  8        9 1.2     BE [Belgium] 1 [Never]             
#>  9        9 1.2     BE [Belgium] 4 [Most days]         
#> 10        9 1.2     BE [Belgium] 3 [A few times a week]
#> # … with 99 more rows
…
r2sd_at(): Rescale Multiple Columns by Two Standard Deviations (and Rename)

r2sd_at() is a wrapper for mutate_at() and rename_at() in dplyr. It both rescales the supplied vectors to new vectors and renames the vectors to all have a prefix of z_. This is my preferred convention for these things.

mtcars %>% tbl_df() %>%
  select(mpg, disp, hp) %>%
  r2sd_at(c("mpg", "hp", "disp"))
#> # A tibble: 32 x 6
#>      mpg  disp    hp   z_mpg   z_hp  z_disp
#>    <dbl> <dbl> <dbl>   <dbl>  <dbl>   <dbl>
#>  1  21    160    110  0.0754 -0.268 -0.285 
#>  2  21    160    110  0.0754 -0.268 -0.285 
#>  3  22.8  108     93  0.225  -0.392 -0.495 
#>  4  21.4  258    110  0.109  -0.268  0.110 
#>  5  18.7  360    175 -0.115   0.206  0.522 
#>  6  18.1  225    105 -0.165  -0.304 -0.0231
#>  7  14.3  360    245 -0.480   0.717  0.522 
#>  8  24.4  147.    62  0.358  -0.618 -0.339 
#>  9  22.8  141.    95  0.225  -0.377 -0.363 
#> 10  19.2  168.   123 -0.0739 -0.173 -0.255 
#> # … with 22 more rows

ps_btscs() and sbtscs(): Create “Peace Years” or “Spells” by Cross-Sectional Unit

sbtscs() allows you to create spells (“peace years” in the international conflict context) between observations of some event. This will allow the researcher to better model temporal dependence in binary time-series cross-section (“BTSCS”) models. Much of it is liberally copy-pasted from Dave Armstrong’s {DAMisc} package. I just added some dplyr stuff underneath to speed it up and prevent it from choking when there are a lot of cross-sectional units without an “event” for a “spell.”

I explain this in this blog post from 2017. It’s incidentally the first thing I added to {stevemisc}. I offer, with it, the usa_mids data frame that has all militarized interstate disputes for the United States in non-directed dyad-year form from the Gibler-Miller-Little (“GML”) data. ps_btscs() is a more general version of sbtscs() that performs well when NAs bracket the event data. The latter function features prominently in {peacesciencer}.

# ?usa_mids

ps_btscs(usa_mids, midongoing, year, dyad)
#> Joining, by = c("dyad", "year")
#> # A tibble: 14,586 x 7
#>       dyad ccode1 ccode2  year midongoing midonset spell
#>      <dbl>  <dbl>  <dbl> <dbl>      <dbl>    <dbl> <dbl>
#>  1 1002020      2     20  1920          0        0     0
#>  2 1002020      2     20  1921          0        0     1
#>  3 1002020      2     20  1922          0        0     2
#>  4 1002020      2     20  1923          0        0     3
#>  5 1002020      2     20  1924          0        0     4
#>  6 1002020      2     20  1925          0        0     5
#>  7 1002020      2     20  1926          0        0     6
#>  8 1002020      2     20  1927          0        0     7
#>  9 1002020      2     20  1928          0        0     8
#> 10 1002020      2     20  1929          0        0     9
#> # … with 14,576 more rows

sbtscs(usa_mids, midongoing, year, dyad)
#> # A tibble: 14,586 x 7
#>       dyad ccode1 ccode2  year midongoing midonset spell
#>      <dbl>  <dbl>  <dbl> <dbl>      <dbl>    <dbl> <dbl>
#>  1 1002020      2     20  1920          0        0     0
#>  2 1002020      2     20  1921          0        0     1
#>  3 1002020      2     20  1922          0        0     2
#>  4 1002020      2     20  1923          0        0     3
#>  5 1002020      2     20  1924          0        0     4
#>  6 1002020      2     20  1925          0        0     5
#>  7 1002020      2     20  1926          0        0     6
#>  8 1002020      2     20  1927          0        0     7
#>  9 1002020      2     20  1928          0        0     8
#> 10 1002020      2     20  1929          0        0     9
#> # … with 14,576 more rows
…
broom::tidy(M1)
#> # A tibble: 7 x 5
#>   term        estimate std.error statistic  p.value
#>   <chr>          <dbl>     <dbl>     <dbl>    <dbl>
#> 1 (Intercept) 11.7        1.06      11.0   4.89e-27
#> 2 agea        -0.00185    0.0101    -0.183 8.55e- 1
#> 3 female      -0.248      0.338     -0.735 4.62e- 1
#> 4 eduyrs       0.488      0.0488    10.0   7.71e-23
#> 5 uempla      -1.10       1.20      -0.915 3.60e- 1
#> 6 hinctnta     0.338      0.0614     5.50  4.52e- 8
#> 7 lrscale     -0.583      0.0881    -6.61  5.37e-11

as_tibble(smvrnorm(1000, coef(M1), vcov(M1)))
#> # A tibble: 1,000 x 7
#>    `(Intercept)`      agea  female eduyrs  uempla hinctnta lrscale
#>            <dbl>     <dbl>   <dbl>  <dbl>   <dbl>    <dbl>   <dbl>
#>  1          10.7  0.000949 -0.386   0.573 -1.76      0.302  -0.588
#>  2          12.8 -0.0118   -0.311   0.469 -0.693     0.203  -0.477
#>  3          10.3  0.000331 -0.408   0.547 -0.618     0.444  -0.676
#>  4          10.6  0.0109   -0.165   0.522  1.37      0.280  -0.505
#>  5          12.2  0.00781  -1.00    0.491 -1.11      0.348  -0.682
#>  6          10.7  0.0132    0.0609  0.454 -0.264     0.380  -0.539
#>  7          11.9  0.0103   -0.815   0.472 -0.0370    0.374  -0.728
#>  8          12.3 -0.00884   0.177   0.474 -1.80      0.216  -0.540
#>  9          12.9  0.00692   0.118   0.391 -1.94      0.380  -0.699
#> 10          12.1  0.00306  -0.512   0.465 -1.03      0.381  -0.660
#> # … with 990 more rows
…
