Create "peace years" or "spells" by cross-sectional unit, more generally — ps_btscs • stevemisc
…
    David A. Armstrong, Steven V. Miller

    Examples

# \donttest{
library(dplyr)
library(stevemisc)
data(usa_mids)

# notice: no quotes
ps_btscs(usa_mids, midongoing, year, dyad)

#> Joining, by = c("dyad", "year")
#> # A tibble: 14,586 × 7
#>       dyad ccode1 ccode2  year midongoing midonset spell
#>      <dbl>  <dbl>  <dbl> <dbl>      <dbl>    <dbl> <dbl>
#>  1 1002020      2     20  1920          0        0     0
#>  2 1002020      2     20  1921          0        0     1
#>  3 1002020      2     20  1922          0        0     2
#>  4 1002020      2     20  1923          0        0     3
#>  5 1002020      2     20  1924          0        0     4
#>  6 1002020      2     20  1925          0        0     5
#>  7 1002020      2     20  1926          0        0     6
#>  8 1002020      2     20  1927          0        0     7
#>  9 1002020      2     20  1928          0        0     8
#> 10 1002020      2     20  1929          0        0     9
#> # … with 14,576 more rows
…
